./s2-t2-t8-t6-t1-t12-t5-t3.svg
./m7-m11-m10-m22-m24-m17-m1-m29.svg
./ra2-ma4-g1-ma6-ra1-ja6-ja2-ja3.svg
./m5-m30-m20-m2-m13-m12-m14-m19.svg
./mp2-p5-p1-p3-p2-p6-mp1-p4.svg
./g2-ja1-ra4-b1-b2-s1-s3-s4.svg
./a1-a3-a7-a5-a2-a4-a8-a6.svg
./ja7-ra3-ma2-ma5-ja5-ma1-ja4-ma3.svg
./m27-m4-m6-m25-m23-m21-m3-m26.svg
./t4-t15-t10-t18-t9-t16-t7-t11.svg
./m8-m15-m9-m15-mod-m16-m28-c1-c2.svg
